<?xml version="1.0" encoding="UTF-8" standalone="no"?>
<!-- Created with Inkscape (http://www.inkscape.org/) -->

<svg
   xmlns:dc="http://purl.org/dc/elements/1.1/"
   xmlns:cc="http://creativecommons.org/ns#"
   xmlns:rdf="http://www.w3.org/1999/02/22-rdf-syntax-ns#"
   xmlns:svg="http://www.w3.org/2000/svg"
   xmlns="http://www.w3.org/2000/svg"
   xmlns:xlink="http://www.w3.org/1999/xlink"
   xmlns:sodipodi="http://sodipodi.sourceforge.net/DTD/sodipodi-0.dtd"
   xmlns:inkscape="http://www.inkscape.org/namespaces/inkscape"
   width="76.572258mm"
   height="76.572266mm"
   viewBox="0 0 76.572258 76.572266"
   version="1.1"
   id="svg983"
   inkscape:version="0.92.3 (2405546, 2018-03-11)"
   sodipodi:docname="logo-gradient-svg.svg">
  <defs
     id="defs977">
    <linearGradient
       inkscape:collect="always"
       xlink:href="#linearGradient934"
       id="linearGradient920"
       gradientUnits="userSpaceOnUse"
       gradientTransform="matrix(0.43522164,0,0,0.43522164,99.305085,24.88822)"
       x1="54.10696"
       y1="77.647827"
       x2="249.94528"
       y2="200.2018" />
    <linearGradient
       inkscape:collect="always"
       id="linearGradient934">
      <stop
         style="stop-color:#4dc5a4;stop-opacity:0.98507464"
         offset="0"
         id="stop928" />
      <stop
         style="stop-color:#329dd8;stop-opacity:1"
         offset="0.33701766"
         id="stop930" />
      <stop
         id="stop932"
         offset="1"
         style="stop-color:#a045dc;stop-opacity:1" />
    </linearGradient>
    <linearGradient
       gradientTransform="matrix(0.43522164,0,0,0.43522164,100.32623,24.71747)"
       gradientUnits="userSpaceOnUse"
       y2="200.59413"
       x2="247.599"
       y1="78.040154"
       x1="51.760685"
       id="linearGradient6892-5"
       xlink:href="#linearGradient942"
       inkscape:collect="always" />
    <linearGradient
       inkscape:collect="always"
       id="linearGradient942">
      <stop
         style="stop-color:#4dc5a4;stop-opacity:0.98507464"
         offset="0"
         id="stop936" />
      <stop
         style="stop-color:#329dd8;stop-opacity:1"
         offset="0.52147931"
         id="stop938" />
      <stop
         id="stop940"
         offset="1"
         style="stop-color:#a045dc;stop-opacity:1" />
    </linearGradient>
  </defs>
  <sodipodi:namedview
     id="base"
     pagecolor="#ffffff"
     bordercolor="#666666"
     borderopacity="1.0"
     inkscape:pageopacity="0.0"
     inkscape:pageshadow="2"
     inkscape:zoom="0.35"
     inkscape:cx="-329.58223"
     inkscape:cy="170.41779"
     inkscape:document-units="mm"
     inkscape:current-layer="layer1"
     showgrid="false"
     fit-margin-top="0"
     fit-margin-left="0"
     fit-margin-right="0"
     fit-margin-bottom="0"
     inkscape:window-width="1920"
     inkscape:window-height="1001"
     inkscape:window-x="-9"
     inkscape:window-y="-9"
     inkscape:window-maximized="1" />
  <metadata
     id="metadata980">
    <rdf:RDF>
      <cc:Work
         rdf:about="">
        <dc:format>image/svg+xml</dc:format>
        <dc:type
           rdf:resource="http://purl.org/dc/dcmitype/StillImage" />
        <dc:title></dc:title>
      </cc:Work>
    </rdf:RDF>
  </metadata>
  <g
     inkscape:label="Layer 1"
     inkscape:groupmode="layer"
     id="layer1"
     transform="translate(-59.98768,-117.35077)">
    <g
       style="display:inline"
       id="g954"
       transform="translate(-56.09916,68.606969)">
      <path
         style="color:#000000;font-style:normal;font-variant:normal;font-weight:normal;font-stretch:normal;font-size:medium;line-height:normal;font-family:sans-serif;font-variant-ligatures:normal;font-variant-position:normal;font-variant-caps:normal;font-variant-numeric:normal;font-variant-alternates:normal;font-feature-settings:normal;text-indent:0;text-align:start;text-decoration:none;text-decoration-line:none;text-decoration-style:solid;text-decoration-color:#000000;letter-spacing:normal;word-spacing:normal;text-transform:none;writing-mode:lr-tb;direction:ltr;text-orientation:mixed;dominant-baseline:auto;baseline-shift:baseline;text-anchor:start;white-space:normal;shape-padding:0;clip-rule:nonzero;display:inline;overflow:visible;visibility:visible;opacity:1;isolation:auto;mix-blend-mode:normal;color-interpolation:sRGB;color-interpolation-filters:linearRGB;solid-color:#000000;solid-opacity:1;vector-effect:none;fill:url(#linearGradient920);fill-opacity:1;fill-rule:nonzero;stroke:none;stroke-width:3.45457172;stroke-linecap:round;stroke-linejoin:round;stroke-miterlimit:4;stroke-dasharray:none;stroke-dashoffset:0;stroke-opacity:1;paint-order:markers fill stroke;color-rendering:auto;image-rendering:auto;shape-rendering:auto;text-rendering:auto;enable-background:accumulate"
         d="m 154.36232,64.289616 c -0.33398,0.004 -0.65948,0.10468 -0.93741,0.28991 l -19.33346,12.88919 c -1.96083,1.26878 -0.008,4.19665 1.91688,2.87387 0.949,-0.65219 11.6208,-7.747 17.43119,-11.6205 0.11995,-0.08 0.97068,-0.61199 1.89103,0.002 5.80949,3.87297 17.42849,11.61892 17.42849,11.61892 1.92962,1.34746 3.90195,-1.61092 1.91598,-2.87386 l -19.33345,-12.88931 c -0.28975,-0.19311 -0.63108,-0.29419 -0.97925,-0.28991 z m 0.0162,7.79393 c -0.95295,0.0136 -1.71475,0.79659 -1.70255,1.74955 l -0.008,8.204608 c 0,0.242721 -7.9e-4,0.382839 -7.9e-4,0.690914 l -0.009,9.791775 h -6.36265 c 0,0 -1.31961,-0.0433 -1.36339,-1.359342 0.0337,-4.738593 0.11898,-8.744382 0.11898,-8.744382 0.0852,-2.335483 -3.4365,-2.412543 -3.45368,-0.07557 0,0 -0.0946,4.344697 -0.12504,9.375032 -0.0242,4.01143 -0.007,8.435349 0.13449,11.519729 -2.3e-4,0.82545 -0.0355,2.74722 1.30221,4.41088 1.3416,1.66852 3.95174,2.54406 7.72938,1.85413 2.29892,-0.39053 1.66807,-3.84568 -0.62052,-3.39856 -3.09037,0.5644 -3.97758,-0.0744 -4.41672,-0.62053 -0.43913,-0.54614 -0.54068,-1.53036 -0.54068,-2.25694 -2.3e-4,-0.0266 -0.001,-0.0532 -0.003,-0.0798 -0.0711,-1.52349 -0.0736,-3.666258 -0.0785,-5.805748 l 5.3e-4,5.29e-4 c 0,0 -0.10525,-1.399508 1.36496,-1.364739 0,0 6.58307,-0.339389 9.86394,-0.119589 2.93051,0.196321 4.62351,0.638289 6.15776,1.70833 1.56324,1.09026 2.1743,2.447427 2.15146,3.744477 -0.0229,1.29706 -0.68177,2.61624 -2.24659,3.621 -1.56483,1.00477 -4.08726,1.65332 -7.67001,1.19786 -2.32651,-0.34578 -2.77506,3.17849 -0.43609,3.42646 4.19111,0.53279 7.56632,-0.17256 9.97192,-1.71717 2.40561,-1.54461 3.79048,-3.96997 3.83444,-6.46698 0.044,-2.497007 -1.25508,-4.983239 -3.62887,-6.638798 -0.7417,-0.517279 -1.61793,-0.925308 -2.55607,-1.276799 0.0775,-0.0683 0.17652,-0.120711 0.25077,-0.1914 1.71014,-1.627902 2.47749,-3.829201 2.31564,-5.917978 -0.28338,-3.657272 -3.55085,-6.890339 -8.22844,-6.872479 l 0.006,-6.63543 c 0.0144,-0.9736 -0.7782,-1.76683 -1.7518,-1.75293 z m 2.11165,11.804918 c 2.97737,0.0097 4.27435,1.865125 4.4183,3.722886 0.0849,1.095823 -0.27554,2.218058 -1.25296,3.148471 -0.74014,0.704551 -1.87797,1.317881 -3.54296,1.599091 l 0.008,-8.456276 c 0.0235,-7.94e-4 0.0523,-0.0086 0.0756,-0.0094 h 2.3e-4 c 0.0996,-0.0035 0.19723,-0.005 0.29328,-0.0047 z"
         id="path5054-1"
         inkscape:connector-curvature="0"
         sodipodi:nodetypes="cccsscccccccccccccccccccccccccssssccsccccccccccsscccccc" />
      <path
         style="color:#000000;font-style:normal;font-variant:normal;font-weight:normal;font-stretch:normal;font-size:medium;line-height:normal;font-family:sans-serif;font-variant-ligatures:normal;font-variant-position:normal;font-variant-caps:normal;font-variant-numeric:normal;font-variant-alternates:normal;font-feature-settings:normal;text-indent:0;text-align:start;text-decoration:none;text-decoration-line:none;text-decoration-style:solid;text-decoration-color:#000000;letter-spacing:normal;word-spacing:normal;text-transform:none;writing-mode:lr-tb;direction:ltr;text-orientation:mixed;dominant-baseline:auto;baseline-shift:baseline;text-anchor:start;white-space:normal;shape-padding:0;clip-rule:nonzero;display:inline;overflow:visible;visibility:visible;opacity:1;isolation:auto;mix-blend-mode:normal;color-interpolation:sRGB;color-interpolation-filters:linearRGB;solid-color:#000000;solid-opacity:1;vector-effect:none;fill:url(#linearGradient6892-5);fill-opacity:1;fill-rule:nonzero;stroke:none;stroke-width:4.60609531;stroke-linecap:butt;stroke-linejoin:miter;stroke-miterlimit:4;stroke-dasharray:none;stroke-dashoffset:0;stroke-opacity:1;paint-order:markers fill stroke;color-rendering:auto;image-rendering:auto;shape-rendering:auto;text-rendering:auto;enable-background:accumulate"
         d="m 154.37199,48.743802 c -21.11755,0 -38.28515,17.167607 -38.28515,38.285157 0,21.117551 17.1676,38.287111 38.28515,38.287111 21.11755,0 38.28711,-17.16956 38.28711,-38.287111 0,-21.11755 -17.16956,-38.285157 -38.28711,-38.285157 z m 0,4.605469 c 18.62823,0 33.67969,15.051457 33.67969,33.679688 0,18.628231 -15.05146,33.681641 -33.67969,33.681641 -18.62823,0 -33.67968,-15.05341 -33.67968,-33.681641 0,-18.628232 15.05145,-33.679688 33.67968,-33.679688 z"
         id="path6882-2"
         inkscape:connector-curvature="0" />
    </g>
  </g>
</svg>
